{
  "builders": [
    {
      "boot_command": [
        "<esc><esc><enter><wait>",
        "/install/vmlinuz auto",
        " console-setup/ask_detect=false",
        " console-setup/layoutcode=us",
        " console-setup/modelcode=pc105",
        " debconf/frontend=noninteractive",
        " debian-installer=en_US",
        " fb=false",
        " initrd=/install/initrd.gz",
        " kbd-chooser/method=us",
        " keyboard-configuration/layout=USA",
        " keyboard-configuration/variant=USA",
        " locale=en_US",
        " netcfg/get_domain=vm",
        " netcfg/get_hostname={{ user `hostname` }}",
        " noapic",
        " passwd/user-fullname={{ user `ssh_fullname` }}",
        " passwd/user-password={{ user `ssh_password` }}",
        " passwd/user-password-again={{ user `ssh_password` }}",
        " passwd/username={{ user `ssh_username` }}",
        " preseed/url=http://{{ .HTTPIP }}:{{ .HTTPPort }}/preseed.cfg",
        " -- ",
        "<enter>"
      ],
      "disk_size": 65536,
      "guest_os_type": "ubuntu-64",
      "headless": "{{ user `headless` }}",
      "http_directory": "http",
      "iso_checksum": "{{ user `iso_checksum` }}",
      "iso_checksum_type": "sha1",
      "iso_urls": [
        "{{ user `iso_path` }}/{{ user `iso_name` }}",
        "{{ user `iso_url` }}"
      ],
      "shutdown_command": "echo '{{ user `ssh_password` }}'|sudo -S shutdown -P now",
      "ssh_password": "{{ user `ssh_password` }}",
      "ssh_username": "{{ user `ssh_username` }}",
      "ssh_wait_timeout": "10000s",
      "tools_upload_flavor": "linux",
      "type": "vmware-iso",
      "vm_name": "ubuntu1404-docker",
      "vmx_data": {
        "memsize": "512",
        "numvcpus": "1"
      }
    }
  ],
  "post-processors": [
    [{
      "type": "vagrant",
      "keep_input_artifact": false
    },
      {
        "type": "atlas",
        "artifact": "webdevops/ubuntu-docker",
        "token": "{{user `atlas_token`}}",
        "artifact_type": "vagrant.box",
        "metadata": {
          "created_at": "{{timestamp}}",
          "version": "{{user `version`}}",
          "provider": "vmware_desktop"
        }
      }
    ]],
  "provisioners": [
    {
      "environment_vars": [
        "CM={{user `cm`}}",
        "CM_VERSION={{user `cm_version`}}",
        "CLEANUP_PAUSE={{user `cleanup_pause`}}",
        "UPDATE={{user `update`}}",
        "INSTALL_VAGRANT_KEY={{user `install_vagrant_key`}}",
        "SSH_USERNAME={{user `ssh_username`}}",
        "SSH_PASSWORD={{user `ssh_password`}}",
        "http_proxy={{user `http_proxy`}}",
        "https_proxy={{user `https_proxy`}}",
        "ftp_proxy={{user `ftp_proxy`}}",
        "rsync_proxy={{user `rsync_proxy`}}",
        "no_proxy={{user `no_proxy`}}"
      ],
      "execute_command": "echo '{{ user `ssh_password` }}' | {{.Vars}} sudo -E -S bash '{{.Path}}'",
      "scripts": [
        "script/update.sh",
        "script/vagrant.sh",
        "script/sshd.sh",
        "script/vmtool.sh",
        "script/docker.sh",
        "script/packages.sh",
        "script/cleanup.sh",
        "script/cmtool.sh"
      ],
      "type": "shell"
    }
  ],
  "variables": {
    "cleanup_pause": "",
    "cm": "nocm",
    "cm_version": "",
    "custom_script": ".",
    "ftp_proxy": "{{env `ftp_proxy`}}",
    "headless": "",
    "http_proxy": "{{env `http_proxy`}}",
    "https_proxy": "{{env `https_proxy`}}",
    "install_vagrant_key": "true",
    "iso_checksum": "0501c446929f713eb162ae2088d8dc8b6426224a",
    "iso_name": "ubuntu-14.04.3-server-amd64.iso",
    "iso_path": "iso",
    "iso_url": "http://releases.ubuntu.com/14.04/ubuntu-14.04.3-server-amd64.iso",
    "no_proxy": "{{env `no_proxy`}}",
    "rsync_proxy": "{{env `rsync_proxy`}}",
    "hostname": "vagrant",
    "ssh_fullname": "vagrant",
    "ssh_password": "vagrant",
    "ssh_username": "vagrant",
    "update": "true",
    "version": "0.3.0"
  }
}

